﻿ja,zh,en,ko
せんしのシンボル,战士之符,Fighter's Symbol,전사의 심벌
ナイトのシンボル,骑士之符,Knight's Symbol,나이트의 심벌
まほうつかいのシンボル,魔法使之符,Magician's Symbol,마법사의 심벌
アルケミストのシンボル,炼金术士之符,Alchemist's Symbol,알케미스트의 심벌
そうりょのシンボル,僧侣之符,Priest's Symbol,승려의 심벌
木の根,树根,Tree Roots,나무 뿌리
硬い石,硬石,Hard Stone,단단한 돌
古木の小枝,古树细枝,Old Tree Twig,오래된 나뭇가지
光輝岩,光辉岩,Glowstone,광휘암
怪しい爪,奇怪的爪,Suspicious Nail,수상한 발톱
銅の繊維,铜纤维,Copper Fiber,구리 섬유
竜の大牙,龙之大牙,Dragon Fang,용의 엄니
ブロンズ塊,青铜块,Chunk of Bronze,청동괴
異界の鉱石,异界矿石,Otherworld Ore,이계의 광석
水晶のかけら,水晶碎片,Crystal Piece,수정 조각
角鋼,角钢,Steel Cube,각강철
緑の水晶,绿水晶,Green Crystal,녹색 수정
ぷにぷに石,软弹石,Squishy Stone,탱글탱글 돌
古びた琥珀,古代琥珀,Old Amber,오래된 호박
ブラックストーン,黑石,Black Stone,블랙 스톤
パステルジュエル,粉彩宝石,Pastel Jewel,파스텔 주얼
太古の骨,太古之骨,Ancient Bone,태고의 뼈
黄金の枝,黄金枝,Golden Branch,황금 가지
銀鉱石,银矿石,Silver Ore,은광석
古の岩石,古岩石,Old Rock,오래된 암석
泪の石,泪之石,Tear Stone,눈물석
神秘の繊維,神秘纤维,Mysterious Fiber,신비의 섬유
竜のウロコ,龙之鳞,Dragon's Scale,용의 비늘
サンゴ石,珊瑚石,Coral Stone,산호석
電気を帯びた鉱石,带电矿石,Electrically Charged Ore,전기가 오르는 광석
神樹の枝,神树之枝,Divine Branch,신수의 가지
ブラッドファング,血牙,Bloodfang,블러드팽
千里眼,千里眼,Clairvoyance,천리안
未知の岩石,未知岩石,Unknown Rock,미지의 암석
真実の反射石,反射真实之石,Truth Reflection Stone,진실의 반사석
ファイアロック,火石,Fire Rock,파이어 록
ホタルの岩,萤石,Firefly Rock,반딧불의 암석
せんしのクレスト,战士纹章,Fighter's Crest,전사의 크레스트
ナイトのクレスト,骑士纹章,Knight's Crest,나이트의 크레스트
まほうつかいのクレスト,魔法使纹章,Magician's Crest,마법사의 크레스트
アルケミストのクレスト,炼金术士纹章,Alchemist's Crest,알케미스트의 크레스트
そうりょのクレスト,僧侣纹章,Priest's Crest,승려의 크레스트
エトワリウムのかけら,Etoilium 碎片,Etoilium Fragment,에토와리움 조각
エトワリウム,Etoilium,Etoilium,에토와리움
スタミナ回復アイテム　小,体力回复道具 小,Stamina Recovery Item - Small,스태미너 회복 아이템 - 소
スタミナ回復アイテム　中,体力回复道具 中,Stamina Recovery Item - Medium,스태미너 회복 아이템 - 중
スタミナ回復アイテム　大,体力回复道具 大,Stamina Recovery Item - Large,스태미너 회복 아이템 - 대
クエストキー　銀,关卡钥匙 银,Quest Key - Silver,퀘스트 키 - 은
クエストキー　金,关卡钥匙 金,Quest Key - Gold,퀘스트 키 - 금
炎の小種,火之小种,Small Fire Seed,화염의 작은 씨앗
風の小種,风之小种,Small Wind Seed,바람의 작은 씨앗
土の小種,土之小种,Small Earth Seed,흙의 작은 씨앗
水の小種,水之小种,Small Water Seed,물의 작은 씨앗
月の小種,月之小种,Small Moon Seed,달의 작은 씨앗
陽の小種,阳之小种,Small Sun Seed,태양의 작은 씨앗
炎の種,火之种,Fire Seed,화염의 씨앗
風の種,风之种,Wind Seed,바람의 씨앗
土の種,土之种,Earth Seed,흙의 씨앗
水の種,水之种,Water Seed,물의 씨앗
月の種,月之种,Moon Seed,달의 씨앗
陽の種,阳之种,Sun Seed,태양의 씨앗
炎の大種,火之大种,Large Fire Seed,화염의 큰 씨앗
風の大種,风之大种,Large Wind Seed,바람의 큰 씨앗
土の大種,土之大种,Large Earth Seed,흙의 큰 씨앗
水の大種,水之大种,Large Water Seed,물의 큰 씨앗
月の大種,月之大种,Large Moon Seed,달의 큰 씨앗
陽の大種,阳之大种,Large Sun Seed,태양의 큰 씨앗
炎の新芽,火之新芽,Fire Sprout,화염의 새싹
風の新芽,风之新芽,Wind Sprout,바람의 새싹
土の新芽,土之新芽,Earth Sprout,흙의 새싹
水の新芽,水之新芽,Water Sprout,물의 새싹
月の新芽,月之新芽,Moon Sprout,달의 새싹
陽の新芽,阳之新芽,Sun Sprout,태양의 새싹
ひだまりスケッチの星華,,,히다마리 스케치의 성화
ゆゆ式の星華,,,유유시키의 성화
がっこうぐらし！の星華,,,학교생활!의 성화
Aチャンネルの星華,,,A채널의 성화
きんいろモザイクの星華,,,금빛 모자이크의 성화
NEW GAME!の星華,,,NEW GAME!의 성화
ステラのまほうの星華,,,스텔라의 마법의 성화
うらら迷路帖の星華,,,우라라 미로첩의 성화
キルミーベイベーの星華,,,킬미 베이비의 성화
桜Trickの星華,,,사쿠라 Trick의 성화
ブレンド・Sの星華,,,블렌드S의 성화
スロウスタートの星華,,,슬로 스타트의 성화
けいおん！の星華,,,케이온!의 성화
ゆるキャン△の星華,,,유루캠△의 성화
こみっくがーるずの星華,,,코믹 걸즈의 성화
GAの星華,,,GA의 성화
夢喰いメリーの星華,,,꿈을 먹는 메리의 성화
ハナヤマタの星華,,,하나야마타의 성화
あんハピ♪の星華,,,언해피♪의 성화
はるかなレシーブの星華,,,하루카나 리시브의 성화
ご注文はうさぎですか？の星華,,,주문은 토끼입니까?의 성화
アニマエール！の星華,,,아니마 옐!의 성화
きららファンタジアの星華,,,키라라 판타지아의 성화
三者三葉の星華,,,삼자삼엽의 성화
棺担ぎのクロ。の星華,,,관지기 쿠로의 성화
せんしのつぼみ,战士之蕾,Fighter's Bud,전사의 꽃봉오리
ナイトのつぼみ,骑士之蕾,Knight's Bud,나이트의 꽃봉오리
まほうつかいのつぼみ,魔法使之蕾,Magician's Bud,마법사의 꽃봉오리
アルケミストのつぼみ,炼金术士之蕾,Alchemist's Bud,알케미스트의 꽃봉오리
そうりょのつぼみ,僧侣之蕾,Priest's Bud,승려의 꽃봉오리
せんしの果実,战士果实,Fighter's Fruit,전사의 열매
ナイトの果実,骑士果实,Knight's Fruit,나이트의 열매
まほうつかいの果実,魔法使果实,Magician's Fruit,마법사의 열매
アルケミストの果実,炼金术士果实,Alchemist's Fruit,알케미스트의 열매
そうりょの果実,僧侣果实,Priest's Fruit,승려의 열매
せんしの星結晶,战士星结晶,Fighter's Star Crystal,전사의 성결정
ナイトの星結晶,骑士星结晶,Knight's Star Crystal,나이트의 성결정
まほうつかいの星結晶,魔法使星结晶,Magician's Star Crystal,마법사의 성결정
アルケミストの星結晶,炼金术士星结晶,Alchemist's Star Crystal,알케미스트의 성결정
そうりょの星結晶,僧侣星结晶,Priest's Star Crystal,승려의 성결정
無名の星結晶,无名星结晶,No Name Star Crystal,이름 없는 성결정
ひだまりスケッチの星結晶,,,히다마리 스케치의 성결정
ゆゆ式の星結晶,,,유유시키의 성결정
がっこうぐらし！の星結晶,,,학교생활!의 성결정
Aチャンネルの星結晶,,,A채널의 성결정
きんいろモザイクの星結晶,,,금빛 모자이크의 성결정
NEW GAME!の星結晶,,,NEW GAME!의 성결정
ステラのまほうの星結晶,,,스텔라의 마법의 성결정
うらら迷路帖の星結晶,,,우라라 미로첩의 성결정
キルミーベイベーの星結晶,,,킬미 베이비의 성결정
桜Trickの星結晶,,,사쿠라 Trick의 성결정
ブレンド・Sの星結晶,,,블렌드S의 성결정
スロウスタートの星結晶,,,슬로 스타트의 성결정
けいおん！の星結晶,,,케이온!의 성결정
ゆるキャン△の星結晶,,,유루캠△의 성결정
こみっくがーるずの星結晶,,,코믹 걸즈의 성결정
GAの星結晶,,,GA의 성결정
夢喰いメリーの星結晶,,,꿈을 먹는 메리의 성결정
ハナヤマタの星結晶,,,하나야마타의 성결정
あんハピ♪の星結晶,,,언해피♪의 성결정
はるかなレシーブの星結晶,,,하루카나 리시브의 성결정
ご注文はうさぎですか？の星結晶,,,주문은 토끼입니까?의 성결정
アニマエール！の星結晶,,,아니마 옐!의 성결정
きららファンタジアの星結晶,,,키라라 판타지아의 성결정
三者三葉の星結晶,,,삼자삼엽의 성결정
棺担ぎのクロ。の星結晶,,,관지기 쿠로의 성결정
まちカドまぞくの星結晶,,,길모퉁이 마족의 성결정
はるみねーしょんの星結晶,,,하루미네이션의 성결정
炎の小進化珠,火之小进化珠,Small Fire Evolution Gem,화염의 소진화주
風の小進化珠,风之小进化珠,Small Wind Evolution Gem,바람의 소진화주
土の小進化珠,土之小进化珠,Small Earth Evolution Gem,흙의 소진화주
水の小進化珠,水之小进化珠,Small Water Evolution Gem,물의 소진화주
月の小進化珠,月之小进化珠,Small Moon Evolution Gem,달의 소진화주
陽の小進化珠,阳之小进化珠,Small Sun Evolution Gem,태양의 소진화주
炎の進化珠,火之进化珠,Fire Evolution Gem,화염의 진화주
風の進化珠,风之进化珠,Wind Evolution Gem,바람의 진화주
土の進化珠,土之进化珠,Earth Evolution Gem,흙의 진화주
水の進化珠,水之进化珠,Water Evolution Gem,물의 진화주
月の進化珠,月之进化珠,Moon Evolution Gem,달의 진화주
陽の進化珠,阳之进化珠,Sun Evolution Gem,태양의 진화주
炎の大進化珠,火之大进化珠,Large Fire Evolution Gem,화염의 진화주
風の大進化珠,风之大进化珠,Large Wind Evolution Gem,바람의 진화주
土の大進化珠,土之大进化珠,Large Earth Evolution Gem,흙의 진화주
水の大進化珠,水之大进化珠,Large Water Evolution Gem,물의 진화주
月の大進化珠,月之大进化珠,Large Moon Evolution Gem,달의 진화주
陽の大進化珠,阳之大进化珠,Large Sun Evolution Gem,태양의 진화주
炎の特大進化珠,火之特大进化珠,Extra Fire Evolution Gem,화염의 대진화주
風の特大進化珠,风之特大进化珠,Extra Wind Evolution Gem,바람의 대진화주
土の特大進化珠,土之特大进化珠,Extra Earth Evolution Gem,흙의 대진화주
水の特大進化珠,水之特大进化珠,Extra Water Evolution Gem,물의 대진화주
月の特大進化珠,月之特大进化珠,Extra Moon Evolution Gem,달의 대진화주
陽の特大進化珠,阳之特大进化珠,Extra Sun Evolution Gem,태양의 대진화주
炎の超進化珠,火之超进化珠,Super Fire Evolution Gem,화염의 초진화주
風の超進化珠,风之超进化珠,Super Wind Evolution Gem,바람의 초진화주
土の超進化珠,土之超进化珠,Super Earth Evolution Gem,흙의 초진화주
水の超進化珠,水之超进化珠,Super Water Evolution Gem,물의 초진화주
月の超進化珠,月之超进化珠,Super Moon Evolution Gem,달의 초진화주
陽の超進化珠,阳之超进化珠,Super Sun Evolution Gem,태양의 초진화주
せんしのブロンズスタチュー,战士青铜雕像,Fighter's Bronze Statue,전사의 브론즈 스태추
ナイトのブロンズスタチュー,骑士青铜雕像,Knight's Bronze Statue,나이트의 브론즈 스태추
まほうつかいのブロンズスタチュー,魔法使青铜雕像,Magician's Bronze Statue,마법사의 브론즈 스태추
アルケミストのブロンズスタチュー,炼金术士青铜雕像,Alchemist's Bronze Statue,알케미스트의 브론즈 스태추
そうりょのブロンズスタチュー,僧侣青铜雕像,Priest's Bronze Statue,승려의 브론즈 스태추
せんしのシルバースタチュー,战士白银雕像,Fighter's Silver Statue,전사의 실버 스태추
ナイトのシルバースタチュー,骑士白银雕像,Knight's Silver Statue,나이트의 실버 스태추
まほうつかいのシルバースタチュー,魔法使白银雕像,Magician's Silver Statue,마법사의 실버 스태추
アルケミストのシルバースタチュー,炼金术士白银雕像,Alchemist's Silver Statue,알케미스트의 실버 스태추
そうりょのシルバースタチュー,僧侣白银雕像,Priest's Silver Statue,승려의 실버 스태추
せんしのゴールドスタチュー,战士黄金雕像,Fighter's Gold Statue,전사의 골드 스태추
ナイトのゴールドスタチュー,骑士黄金雕像,Knight's Gold Statue,나이트의 골드 스태추
まほうつかいのゴールドスタチュー,魔法使黄金雕像,Magician's Gold Statue,마법사의 골드 스태추
アルケミストのゴールドスタチュー,炼金术士黄金雕像,Alchemist's Gold Statue,알케미스트의 골드 스태추
そうりょのゴールドスタチュー,僧侣黄金雕像,Priest's Gold Statue,승려의 골드 스태추
ひだまりスケッチの超進化珠,,,히다마리 스케치의 초진화주
ゆゆ式の超進化珠,,,유유시키의 초진화주
がっこうぐらし！の超進化珠,,,학교생활!의 초진화주
Aチャンネルの超進化珠,,,A채널의 초진화주
きんいろモザイクの超進化珠,,,금빛 모자이크의 초진화주
NEW GAME!の超進化珠,,,NEW GAME!의 초진화주
ステラのまほうの超進化珠,,,스텔라의 마법의 초진화주
うらら迷路帖の超進化珠,,,우라라 미로첩의 초진화주
キルミーベイベーの超進化珠,,,킬미 베이비의 초진화주
桜Trickの超進化珠,,,사쿠라 Trick의 초진화주
ブレンド・Sの超進化珠,,,블렌드S의 초진화주
スロウスタートの超進化珠,,,슬로 스타트의 초진화주
けいおん！の超進化珠,,,케이온!의 초진화주
ゆるキャン△の超進化珠,,,유루캠△의 초진화주
こみっくがーるずの超進化珠,,,코믹 걸즈의 초진화주
GAの超進化珠,,,GA의 초진화주
夢喰いメリーの超進化珠,,,꿈을 먹는 메리의 초진화주
ハナヤマタの超進化珠,,,하나야마타의 초진화주
あんハピ♪の超進化珠,,,언해피♪의 초진화주
はるかなレシーブの超進化珠,,,하루카나 리시브의 초진화주
ご注文はうさぎですか？の超進化珠,,,주문은 토끼입니까?의 초진화주
アニマエール！の超進化珠,,,아니마 옐!의 초진화주
きららファンタジアの超進化珠,,,키라라 판타지아의 초진화주
三者三葉の超進化珠,,,삼자삼엽의 초진화주
棺担ぎのクロ。の超進化珠,,,관지기 쿠로의 초진화주
交換メダル,交换奖牌,Exchange Medal,교환 메달
星屑のかけら,星屑碎片,Stardust Fragment,은하수 조각
チャレンジメダル,挑战奖牌,Challenge Medal,챌린지 메달
輝星のかけら　銀,辉星碎片 银,Bright Star Fragment - Silver,휘성 조각 - 은
輝星のかけら　金,辉星碎片 金,Bright Star Fragment - Gold,휘성 조각 - 금
スキルアップパウダー（専用ぶき）,技能升级粉末（专用武器）,Skill Up Powder (Exclusive Weapon),스킬 업 파우더 (전용 무기)
チャンスアップキーホルダー,概率提升钥匙圈,Chance Up Key Holder,찬스 업 키홀더
召喚チケット,召唤券,Summon Ticket,소환 티켓
★4確定召喚チケット,,,★4 확정 소환 티켓
スペシャルコールチケット,,,스페셜 콜 티켓
リリース200日記念スペシャルコールチケット,,,출시 200일 기념 스페셜 콜 티켓
★5確定召喚チケット,,,★5 확정 소환 티켓
リリース300日記念スペシャルコールチケット,,,출시 300일 기념 스페셜 콜 티켓
★4コールチケット,,,★4 콜 티켓
★5コールチケット,,,★5 콜 티켓
1周年記念スペシャルコールチケット,,,1주년 기념 스페셜 콜 티켓
きらら&ミラク★5確定チケット,,,키라라 & 미러클 ★5 확정 티켓
きららMAX★5確定チケット,,,키라라 MAX ★5 확정 티켓
きららフォワード★5確定チケット,,,키라라 포워드 ★5 확정 티켓
1周年記念エクストラコールチケット,,,1주년 기념 엑스트라 콜 티켓
きららキャラット★5確定チケット,,,키라라 캐럿 ★5 확정 티켓
初夢スペシャルコールチケット,,,첫 꿈 스페셜 콜 티켓
初夢★4コールチケット,,,첫 꿈 ★4 콜 티켓
リリース400日記念スペシャルコールチケット,,,출시 400일 기념 스페셜 콜 티켓
筆頭神官＆七賢者限定★5確定チケット,,,필두신관 & 칠현자 한정 ★5 확정 티켓
Fes.出演キャラクター★5コールチケット,,,Fes. 출연 캐릭터 ★5 콜 티켓
2周年記念スペシャルコールチケット,,,2주년 기념 스페셜 콜 티켓
大×2感謝★5確定召喚チケット,,,대×2 감사 ★5 확정 소환 티켓
2周年記念エクストラコールチケット,,,2주년 기념 엑스트라 콜 티켓
期間限定★5キャラクター確定召喚チケット,,,기간 한정 ★5 캐릭터 확정 소환 티켓
がっこうぐらし！★5コールチケット,,,학교생활! ★5 콜 티켓
大×2感謝抽選券,,,대×2 감사 추첨권
ランプからの贈り物,,,램프가 주는 선물
やすなす,安奈茄子,Yasunasu,야스나스
ソーナッツ,索尼娅甜甜圈,Soughnut,소넛
変わり身のキノコ,替身蘑菇,Changeover Mushroom,둔갑 버섯
きのコイン,蘑菇币,Shroom-coin,버섯 코인
限界突破きのこ,界突蘑菇,Limit Break Mushroom,한계돌파 버섯
【超強敵】やすなマタンゴ挑戦券,【超强敌】安奈蘑菇怪挑战劵,[Boss] Yasuna Matango Challenge Ticket,【초강적】 야스나 버섯 도전권
【超強敵】ソーニャマタンゴ挑戦券,【超强敌】索尼娅蘑菇怪挑战劵,[Boss] Sonya Matango Challenge Ticket,【초강적】 소냐 버섯 도전권
【超強敵】合体マタンゴ挑戦券,【超强敌】合体蘑菇怪挑战劵,[Boss] United Matango Challenge Ticket,【초강적】 합체 버섯 도전권
クリスマスリース,圣诞花环,Christmas Wreathe,크리스마스 리스
オーナメント,饰品,Ornament,오너먼트
クリスマスステッキ,圣诞棒,Christmas Stick,크리스마스 스틱
プレゼント,礼物,Present,프레젠트
金色のプレゼント,金色的礼物,Golden Present,금색 프레젠트
小吉こけし,小吉木芥子,Small Fortune Kokeshi,소길 목각인형
中吉こけし,中吉木芥子,Middle Fortune Kokeshi,중길 목각인형
大吉こけし,大吉木芥子,Great Fortune Kokeshi,대길 목각인형
きんいろこけしマスコット,金色木芥子吉祥物,Kiniro Kokeshi Mascot,금빛 목각인형 마스코트 
新春メカこけし挑戦券,新春机械木芥子挑战劵,New Year Mecha-Kokeshi Challenge Ticket,신춘 메카 목각인형 도전권
コーヒー豆,咖啡豆,Coffee Bean,커피콩
ナッツ,坚果,Nut,너츠
茶葉,茶叶,Tea Leaf,찻잎
ブレンドクッキー,混合味曲奇,Blend Cookie,블렌드 쿠키
オススメスイーツセット,精选甜点套餐,Recommend Sweets Set,추천 스위트 세트
【超強敵】スイーツゴーレム挑戦券,【超强敌】甜点魔偶巨人挑战劵,[Boss] Sweets Golem Challenge Ticket,【초강적】 스위트 골렘 도전권
【強敵】スイーツゴーレム挑戦券,【强敌】甜点魔偶巨人挑战劵,[Boss] Sweets Golem Challenge Ticket,【강적】 스위트 골렘 도전권
ラッピングリボン,彩带,Wrapping Ribbon,래핑 리본
バレンタインシール,情人节贴纸,Valentine Seal,밸런타인 씰
バレンタインボックス,情人节礼品盒,Valentine Box,밸런타인 박스
バレンタインチョコレート,情人节巧克力,Valentine Chocolate,밸런타인 초콜릿
特大バレンタインチョコレート,情人节特大巧克力,Extra Valentine Chocolate,특대 밸런타인 초콜릿
【乱戦】バレンタインの聖戦挑戦券,【乱战】情人节圣战挑战劵,[Melee] Valentine Melee Challenge Ticket,【난전】 밸런타인의 성전 도전권
古びた火箸,陈旧的火箸,Old Tongs,오래된 부집게
立派な大鎚,巨大的锤子,Excellent Hammer,훌륭한 망치
燐火の金床,鬼火的铁砧,Phosphorus Fire Anvil,인화의 모루
【超強敵】リシュカ挑戦券,【超强敌】梦狐挑战劵,[Boss] Rishuka Challenge Ticket,【초강적】 리슈카 도전권
ヒナあられ,女儿节年糕,Hina Arare,히나아라레
ヒナ餅,女儿节馅饼,Hina Mochi,히나모치
ヒナ酒,女儿节甜酒,Hina Sake,히나사케
ヒナ団子,女儿节团子,Hina Dango,히나당고
ヒナエムブレム,女儿节纹章,Hina Emblem,히나 엠블럼
【超強敵】風雲！ヒナ祭り挑戦券,【超强敌】风云！女儿节挑战劵,[Boss] Hinamatsuri Challenge Ticket,【초강적】 풍운! 히나마츠리 도전권
ペラペラおにぎり,纸片饭团,Flatten Rice Ball,납작한 주먹밥
ペラペラプリン,纸片布丁,Flatten Pudding,납작한 푸딩
ゲームディスク,游戏碟,Game Disk,게임 디스크
【超強敵】ねねクエ挑戦券,【超强敌】宁宁任务挑战劵,[Boss] Nene Quest Challenge Ticket,【초강적】 네네퀘 도줜권
妖精の耳飾り,妖精的耳坠,Faires' Earring,요정의 귀걸이
妖精の首飾り,妖精的首饰,Faires' Necklace,요정의 목걸이
願いの箱,许愿箱,Wish Box,소원 상자
【超強敵】FairiesTrick挑戦券,【超强敌】Fairies Trick 挑战劵,[Boss] Fairies Trick Challenge Ticket,【초강적】 Fairies Trick 도전권
湖の魚,湖里的鱼,Lake Fish,호수의 물고기
霊山の種火,灵山的火种,Sacred Mountain Fire,영산의 불씨
黄色いブーケ,黄色花束,Yellow Bouquet,노란색 부케
絵馬の根付,绘马的坠饰,Ema Netsuke,에마 네츠케
ハートのゼムクリップ,心形别针,Heart Gem Clip,하트 모양 젬 클립
【乱戦】友達大作戦挑戦券,【乱战】朋友大作战挑战劵,[Melee] Friend Operation Challenge Ticket,【난전】 친구 대작전 도전권
松ぼっくり,松球,Pine Cone,솔방울
ツンツーン,噌噌菜,Tsun Tsuun,찡찡
イベント限定コールチケット,活动限定召唤劵,Event Limited Call Ticket,이벤트 한정 콜 티켓
【強敵】北の山挑戦券,【强敌】北山挑战劵,[Boss] Northern Mountain Challenge Ticket,【강적】 북쪽 산 도전권
【超強敵】北の山挑戦券,【超强敌】北山挑战劵,[Boss] Northern Mountain Challenge Ticket,【초강적】 북쪽 산 도전권
始まりのト音,开始的高音符号,Beginning Sound Treble,시작의 솔 음
#な旋律,# 的旋律,# Rhythm,#의 선율
魔法道具のレプリカ,魔法道具的复制品,Magic Item Replica,마법 도구 레플리카
【超強敵】エトワリアの歌姫挑戦券,【超强敌】艾特瓦利亚歌姬挑战劵,[Boss] Etoilia's Diva Challenge Ticket,【초강적】 에토와리아의 가희 도전권
花の腕章,花之腕章,Flower Armband,꽃 완장
唐傘,唐伞,Oiled Papar Umbrella,지우산
よさこい旗,夜来舞旗,Yosakoi Flag,요사코이 깃발
【乱戦】よさこい挑戦券,【乱战】夜来舞挑战劵,[Melee] Yosakoi Challenge Ticket,【난전】 요사코이 도전권
真っ白な原稿,空白的原稿,Blank Manuscript,새하얀 원고
羽根ペン,羽毛笔,Quill Pen,깃털펜
コミックエトワリア創刊号,漫画艾特瓦利亚创刊号,Comit Etoilia First Issue,코믹 에토와리아 창간호
【超強敵】連載会議挑戦券,【超强敌】连载会议挑战劵,[Boss] Serial Meeting Challenge Ticket,【초강적】 연재 회의 도전권
トランシーバー,对讲机,Transceiver,트랜시버
サイコロ,骰子,Dice,주사위
十字のチョーカー,十字领带,Cross Choker,십자가 초커
【乱戦】激闘！黒黒団挑戦券,【乱战】激斗！黑黑团挑战劵,[Melee] Fight! Kuroguro-Dan Challenge Ticket,【난전】 격투! 흑흑단 도전권
不思議の国の落し物,不思议之国的遗失物,Wonderland Lost Item,이상한 나라의 분실물
ピック,拨片,Pick,피크
ティーカップ,茶杯,Tea Cup,티컵
ネコミミメイド服,猫耳女仆装,Cat Ear Maid Clothes,고양이 귀 메이드복
水鉄砲,玩具水枪,Water Gun,물총
かき氷,刨冰,Shaved Ice,빙수
誰かの水着,某人的泳衣,Someone's Swimsuit,누군가의 수영복
【乱戦】ビーチ防衛戦挑戦券,【乱战】海滩防卫战挑战劵,[Melee] Beach Defence Battle Challenge Ticket,【난전】 비치 방위전 도전권
スイカ割りセット,打西瓜套装,Watermelon Split Set,수박깨기 세트
釣り針,鱼钩,Fishing Hook,낚시바늘
ウミガメのブレスレット,海龟的手镯,Turtles' Bracelet,바다거북 팔찌
玉手箱,玉手箱,Treasure Box,보물상자
【超強敵】海の底のお姫様挑戦券,【超强敌】海底公主挑战劵,[Boss] Princess at the Sea Bottom Challenge Ticket,【초강적】 바다 밑 공주 도전권
南国の木の実,南国果实,Tropical Tree Fruit,남쪽나라의 나무 열매
ビーチバレー球,沙滩排球,Beach Volleyball,비치발리볼 공
絆のペンダント,羁绊挂坠,Bond Pendant,인연의 펜던트
【超強敵】砂浜の幻影挑戦券,【超强敌】沙滨幻影挑战劵,[Boss] Beach Illusion Challenge Ticket,【초강적】 모래사장의 환영 도전권
汚れたピザ皿,脏的披萨碟,Dirtied Pizza Plate,더러운 피자 접시
何かの欠片,某物的碎片,Fragment of Something,무언가의 조각
名探偵のつけヒゲ,名侦探的假胡子,Detective's False Beard,명탐정의 가짜 수염
【超強敵】ユーの悲劇挑戦券,【超强敌】U 的悲剧挑战劵,[Boss] The Tragedy of U Challenge Ticket,【초강적】 유의 비극 도전권
ねこ歌の譜面,猫之歌的乐谱,Score of Cats' Song,고양이 노래의 악보
ねこ村の釣り竿,猫之村的钓竿,Fishing Rod of Cat Village,고양이 마을의 낚싯대
ねこの不思議なオルゴール,不可思议的猫音盒,Cats' Mysterious Music Box,고양이의 이상한 오르골
【乱戦】マウス・アタック挑戦券,【乱战】Mouse Attack 挑战劵,[Melee] Mouse Attack Challenge Ticket,【난전】 마우스 어택 도전권
【超強敵】復刻ゴーレム挑戦券,【超强敌】复刻魔偶挑战劵,[Boss] Re-Run 魔偶挑战券,【초강적】 복각 골렘 도전권
園芸スコップ,园艺铲,Gardening Scoop,원예 삽
水やりジョウロ,喷壶,Watering Can,물뿌리개
幸福の種,幸福之种,Seed of Happiness,행복의 씨앗
【超強敵】略奪の蔦挑戦券,掠夺的常春藤挑战劵,[Boss] Looting Ivy Challenge Ticket,【초강적】 약탈의 덩굴 도전권
エスプレッソ,浓咖啡,Espresso,에스프레소
ティッピーパン,提比面包,Tippy Bread,티피 빵
ラビットハウスの看板,Rabbit House 的看板,Rabbit House Sign,래빗 하우스의 간판
【乱戦】かつてない盛況挑戦券,【乱战】前所未有的盛况挑战劵,[Melee] Prosperity Like Never Before Challenge Ticket,【난전】 전에 없는 성황 도전권
髪留め,发夹,Barrette,머리끈
ポンポン,啦啦球,Ponpon,폼폼
高級限定スイーツ,高级限定甜点,Luxury Limited Sweets,고급 한정 스위트
雪色の絵の具,雪色画具,Snow Color Paints,눈색 물감
クリスマスドーナツ,圣诞甜甜圈,Christmas Doughnut,크리스마스 도넛
セクシー雪だるま,性感雪人,Sexy Snowman,섹시 눈사람
【超強敵】黒雪だるま挑戦券,【超强敌】黑雪人挑战劵,[Boss] Black Snowman Challenge Ticket,【초강적】 검은 눈사람 도전권
【乱戦】年越しパーティ挑戦券,【乱战】跨年派对挑战劵,[Melee] New Year Party Challenge Ticket,【난전】 송년 파티 도전권
羽子板,羽子板,Battledore,하고이타
鏡餅,镜饼,Kagami Mochi,카가미모치
ゴールドカード,黄金卡片,Gold Card,골드 카드
【乱戦】年明けすごろく挑戦券,【乱战】新年双六挑战劵,[Melee] New Year Sugoroku Challenge Ticket,【난전】 새해 주사위 도전권
ファンレター,粉丝信,Fan Letter,팬레터
タロットカード,塔罗牌,Tarot Card,타로 카드
天然デトックスチョコレート,天然解毒巧克力,Natural Detox Chocolate,
【超強敵】果実の守護者挑戦券,【超强敌】果实守护者挑战劵,[Boss] Fruits Guardian Challenge Ticket,【초강적】 과실의 수호자 도전권
お砂糖たっぷりアイスココア,十分糖冰可可,Ice Cocoa with Plenty of Sugar,
配信のすゝめ,配信通,Host Magazine,잡지
スタンプカード,集章卡,Stamp Card,스탬프 카드
【超強敵】調査任務挑戦券,【超强敌】调查任务挑战劵,[Boss] Searching Missison Challenge Ticket,【초강적】 조사 임무 도전권
砕けた鉱石,破碎的矿石,Broken Ore,부서진 광석
不思議な金属片,不可思议的金属片,Mysterious Metal Piece,이상한 금속 조각
褒賞バッヂ,奖章,Reward Badge,포상 배지
【超強敵】鋼鉄巨人挑戦券,【超强敌】钢铁巨人挑战劵,[Boss] Steel Giant Challenge Ticket,【초강적】 강철 거인 도전권
イベント復刻コールチケット,活动复刻召唤劵,Event Re-Run Call Ticket,이벤트 복각 콜 티켓
特産きゅうり,特产黄瓜,Special Cucumber,특산 오이
マヨネーズ,蛋黄酱,Mayonnaise,마요네즈
抽選マシーン,抽奖机,Lottery Machine,추첨 머신
【超強敵】怪しげ女将挑戦券,【超强敌】奇怪的老板娘挑战劵,[Boss] Strange Madam Challenge Ticket,【초강적】 수상한 여주인 도전권
崩れたオブジェ,崩坏的作品,Broken Object,무너진 오브제
街中のチラシ,街上的传单,Flyers on the Streets,거리의 전단지
黄金のクロモン像,黄金小黑怪像,Golden Kuromon Statue,황금 쿠로몬상
【乱戦】王国探検挑戦券,【乱战】王国探险挑战劵,[Melee] Kingdom Exploration Challenge Ticket,【난전】 왕국 탐험 도전권
海に映る月と星々,海中映月与繁星,Moon and stars reflected in the sea,바다에 비치는 달과 별들
3羽の看板パン,三只兔招牌面包,Three Rabbits Bread,3마리의 간판 빵
お手製のテーブルセット,手制下午茶点,Homemade Table Set,수제 테이블 세트
【乱戦】喫茶戦国時代挑戦券,【乱战】咖啡店战国时代劵,[Melee] Cafe Sengoku Period Challenge Ticket,【난전】 카페 전국시대 도전권
はちまき（紅白）,头巾（红白）,Headbands (Red & White),두건 (홍백)
応援旗,应援旗,Support Flag,응원기
トロフィー,奖杯,Trophy,트로피
蹄鉄,铁蹄,Horseshoe,편자
拳銃型飛び道具,手枪型飞行道具,Revolvers,권총
ワンポールテント,临时帐篷,One Pole Tent,원폴 텐트
【超強敵】ギャングー団挑戦券,【超强敌】嘿帮团挑战券,[Boss] Gangu-Dan Challenge Ticket,【초강적】 갱단 도전권
【超強敵】側近バトル挑戦券,【超强敌】侍从对战挑战劵,[Boss] Attendant Battle Challenge Ticket,【초강적】 측근 배틀 도전권
【乱戦】砂浜清掃挑戦券,【乱战】海滩清扫挑战劵,[Melee] Beach Cleaning Challenge Ticket,【난전】 모래사장 청소 도전권
日焼け止め,防晒霜,Sunscreen,선크림
リュウグウランドセット,龙宫套餐,Ryuuguu Land Set,류구 랜드 세트
マル秘の台本,保密台本,Secret Script,기밀 대본
【超強敵】水底の襲撃者挑戦券,【超强敌】水底袭击者挑战劵,[Boss] Underwater Raider,【초강적】 물밑의 습격자 도전권
海賊の金貨,海贼的金币,Pirates' Gold Coin,해적의 금화
思い出の小箱,回忆的小箱,Memory Box,추억의 작은 상자
【超強敵】麗しの女海賊挑戦券,【超强敌】华丽女海贼挑战劵,[Boss] Beautiful Female Pirate Challenge Ticket,【초강적】 아름다운 여해적 도전권
【超強敵】導かれし者たち挑戦券,【超强敌】接受神谕者挑战劵,,【초강적】 이끌려가는 자들 도전권
クエン酸入りオレンジジュース,放了柠檬酸的橙汁,Orange Juice with Citric Acid,구연산이 든 오렌지 주스
桃色いせかいダンベル,桃色异世界哑铃,Pink Different World Dumbbell,연분홍색 세계 덤벨
ご利益のある像,有利可图的雕像,A Profitable Statue,효험 있는 상
【超強敵】いせかいまぞく挑戦券,【超强敌】异世界魔族挑战劵,[Boss] Different World Demon Challenge Ticket,【초강적】 이세계 마족 도전권
サンドイッチ,三明治,Sandwich,샌드위치
ランチョンマット,午餐布,Lunch Mat,런치 매트
職業体験カード,职业体验卡,Work Experience Card,직업체험 카드
【超強敵】教会の影挑戦券,【超强敌】教会之影挑战劵,[Boss] Church Shadow Challenge Ticket,【초강적】 교회의 그림자 도전권
【超強敵】華麗なるカレー挑戦券,【超强敌】华丽咖喱挑战劵,[Boss] Karei Curry Challenge Ticket,【초강적】 화려한 카레 도전권
簡易ゴーレム作成キット,简易魔偶作成模组,Simple Golem Creation Kit,간이 골렘 제작 키트
お菓子バスケット,点心篮,Candy Basket,과자 바구니
通信機,通信机,Communication Equipment,통신기
【乱戦】人形とお菓子の宴挑戦券,【乱战】人偶与点心之宴挑战劵,[Melee] Golems and Candy Party Challenge Ticket,【난전】 인형과 과자의 잔치 도전권
【超強敵】着ぐるみナイト挑戦券,【超强敌】玩偶骑士挑战劵,[Boss] Costume Knight Challenge Ticket,【초강적】 인형옷 나이트 도전권
エアガン,空气枪,Air Gun,에어건
ランニングシューズ,跑步鞋,Running Shoes,러닝 슈즈
特訓かかし,特训稻草人,Training Scarecrow,특훈 허수아비
【超強敵】スーパーかかし挑戦券,【超强敌】超级特训挑战劵,[Boss] Super Scarecrow Challenge Ticket,【초강적】 슈퍼 허수아비 도전권
6面ダイス,六面骰子,Hexahedron Dice,6면 주사위
キャラクターシート,角色贴纸,Character Sheet,캐릭터 시트
Ｅ＆Ｅ,E & E,E & E,E & E
【超強敵】Ｅ＆Ｅ挑戦券,【超强敌】E & E 挑战劵,[Boss] E & E Challenge Ticket,【초강적】 E & E 도전권
クリスマスパンケーキ,圣诞烤薄饼,Christmas Pancake,크리스마스 팬케이크
不思議な木の実,不可思议果实,Mysterious Fruit,이상한 나무 열매
不思議な魔法薬,不可思议魔法药,Mysterious Magic Potion,이상한 마법약
【超強敵】聖夜のゴーレム挑戦券,【超强敌】圣诞夜魔偶挑战劵,[Boss] Christmas Evening Golem Challenge Ticket,【초강적】 성야의 골렘 도전권
年越しそばセット,跨年荞麦面,New Year Soba,새해 소바 세트
カンペ,提示板,Sign,지시판
水晶テレビ玉,水晶电视玉,Crystal TV Ball,수정 TV 구슬
【超強敵】お雑煮ハント挑戦券,【超强敌】杂煮狩猎战挑战劵,[Boss] Zoni Hunt Challenge Ticket,【초강적】 떡국 사냥 도전권
★5確定チケット引換券,,,★5 확정 티켓 교환권
【乱戦】エトワリア蔵開き挑戦券,【乱战】艾特瓦利亚藏开挑战劵,[Melee] Etoilia Kurabiraki Challenge Ticket,【난전】 에토와리아 쿠라비라키 도전권
【超強敵】謎の金属生命体挑戦券,【超强敌】谜之金属生命体挑战券,[Boss] Mysterious Metal Life Form Challenge Ticket,【초강적】 수수께끼의 금속 생명체 도전권
闇チョコ,黑暗巧克力,Dark Chocolate,어둠 초코
張り込みグッズ,蹲点套餐,Stakeout Goods,잠목 굿즈
チョコレートバスケット,巧克力篮子,Chocolate Basket,초콜릿 바구니
幸腹グラフィティの星結晶,,,행복 그래피티의 성결정
勇者のグルメ,勇者美食传,Hero's Gourmet,용사의 구르메
イカゲソ,鱿鱼须,Squid Tentacle,오징어다리
ドラゴンのとろとろ半熟タマゴ,入口即化的半熟龙蛋,Dragon's Gently Soft-boiled Egg,드래곤의 끈적거리는 반숙 알
【超強敵】火竜のタマゴ挑戦券,【超强敌】火龙蛋挑战券,[Super] Dragon's Egg Challenge Ticket,【초강적】 화룡의 알 도전권
クラフトメダル,作品工艺奖牌,Craft Medal,크래프트 메달
ひな祭り復刻★5キャラクター確定召喚チケット,,,히나마츠리 ★5 캐릭터 확정 소환 티켓
ヒナ扇,女儿节扇,Hina Fan,히나 부채
ヒナの穴の鍵,女儿节洞穴钥匙,Hina Doll's Key,히나 구멍의 열쇠
ヒナの平額,女儿平额,Hina's Crown,히나 머리장식
【超強敵】ヒナコロシアム挑戦券,【超强敌】女儿节地狱特训挑战券,[Boss] Hina Colosseum Challenge Ticket,【초강적】 히나 콜로세움 도전권
恋する小惑星の星結晶,,,사랑하는 소행성의 성결정
流星キャンディー,流星糖果,Meteor Candy,유성 캔디
流星Ｔシャツ,流星T恤,Meteor T-Shirt,유성 티셔츠
輝く羽根,闪亮的羽毛,Shining Feather,빛나는 날개
【乱戦】ほしわたり挑戦券,【乱战】星之候鸟挑战券,[Melee] Star Migrant Challenge Ticket,【난전】 호시와타리 도전권
コミカライズ第1巻発売記念★5確定チケット,,,코미컬라이즈 제1권 발매 기념 ★5 확정 티켓
ヒミツのネタ帳,秘密捏它笔记,Secret Neta Notebook,비밀의 메모장
ランプちゃんねる登録券,兰普频道登录券,Lamp Channel Subscribe Ticket,램프 채널 등록권
卒業証書,毕业证书,Diploma,졸업장
課題のオルゴール,课题八音盒,Schoolwork Music Box,과제의 오르골
残されたノート,遗留的笔记,Left-Behind Notes,남겨진 노트
【超強敵】憧れの学園生活挑戦券,【超强敌】美好的学园生活挑战券,[Boss] School Life Challenge Ticket,【초강적】 동경하는 학원생활 도전권
きんいろモザイク★5コールチケット,,,금빛 모자이크 ★5 콜 티켓
コミュカード,交流卡,Commu Card,커뮤 카드
ケチャップ,番茄酱,Ketchup,케첩
オムライス,蛋包饭,Omurice,오므라이스
うさ耳,兔耳,Bunny Ears,토끼귀
【超強敵】館の守護者挑戦券,【超强敌】馆之守护着挑战券,[Boss] Mansion Guardian Challenge Ticket,【초강적】 저택의 수호자 도전권
いちおしテーマ第1弾★5キャラクター確定召喚チケット,,,추천 테마 제1탄 ★5 캐릭터 확정 소환 티켓
いちおしテーマ第2弾★5キャラクター確定召喚チケット,,,추천 테마 제2탄 ★5 캐릭터 확정 소환 티켓
運動会復刻★5キャラクター確定召喚チケット,,,운동회 복각 ★5 캐릭터 확정 소환 티켓
キルミーベイベー★5確定召喚チケット,,,킬미 베이비 ★5 캐릭터 확정 소환 티켓
結社への招待状,结社的招待券,Association's Invitation,결사에게 보내는 초대장
花の贈り物,花束礼物,Flower Gift,꽃 선물
秘密の仮面,秘密面具,Secret Mask,비밀의 가면
【乱戦】イノシシの群れ挑戦券,【乱战】猪群挑战券,[Melee] Boar Flocks Challenge Ticket,【난전】 멧돼지 떼 도전권
お弁当,便当,Box Lunch,도시락
ごせんぞうサンドバッグ,先祖沙袋,Ancestue Punching Bag,선조님 샌드백
由緒ある杯,有历史的圣杯,Historic Cup,유서 깊은 잔
【大討伐】暴れるボール挑戦券,【大讨伐】暴走球挑战券,[Crusade] Wild Balls Challenge Ticket,【대토벌】 날뛰는 공 도전권
球詠の星結晶,,,타마요미의 성결정
いちおしテーマ★5キャラクター確定召喚チケット,,,추천 테마 ★5 캐릭터 확정 소환 티켓
野球ボール,棒球,Baseball,야구공
バット,球棒,Bat,배트
バッテリーのグローブ,棒球手套,Batting Gloves,배터리의 글러브
【超強敵】野球の民挑戦券,【超强敌】棒球之民挑战券,[Boss] Baseball Player Challenge Ticket,【초강적】 야구의 백성 도전권
桜Trick★5確定召喚チケット,,,
きらら展in新潟前半記念★5確定召喚チケット,,,
きららお誕生日記念★5確定召喚チケット,,,
ブレンド・S★5確定召喚チケット,,,
期間限定水着★5コールチケット,,,
2018水着復刻★5確定召喚チケット,,,
夢喰いメリー★5確定召喚チケット,,,
わくわく召喚チケット,,,
2019水着復刻★5確定召喚チケット,,,
【きららお誕生日】バースデーカード,,,
【きららお誕生日】バースデーケーキ,,,
ささみソーセージ,,,
短冊,,,
星型の髪留め,,,
【超強敵】天の川の主挑戦券,,,
【超強敵】ワンモアネコロジー挑戦券,,,
最後尾札,,,
スケブ,,,
封印の書,,,
【超強敵】同人の怪鳥挑戦券,,,
【乱戦】夏休み宿題大作戦挑戦券,,,
貝殻の瓶詰,,,
奇跡のスイカ,,,
宿題の日記帳,,,
【超強敵】海の荒くれ者挑戦券,,,
きらら展in新潟後半記念★5確定召喚チケット,,,
はるかなレシーブ★5コールチケット,,,
アニマエール！★5コールチケット,,,
早押しボタン,,,
アルティメットクイズ優勝賞品,,,
【超強敵】かき氷ゴーレム挑戦券,,,
海賊のポンポン,,,
得点ボード,,,
眼帯風アクセサリー,,,
【超強敵】横暴ボス海賊挑戦券,,,
あっちこっちの星結晶,,,
おちこぼれフルーツタルトの星結晶,,,
コラボ★5キャラクター確定召喚チケット,,,
ご注文はうさぎですか？★5確定召喚チケット・第1弾,,,
ハナヤマタ★5コールチケット,,,
ご注文はうさぎですか？★5確定召喚チケット・第2弾,,,
カップルドリンク,,,
ペアパジャマ,,,
約束の指輪,,,
【超強敵】嫉妬のおばけ挑戦券,,,
わたあめ,,,
10段パンケーキ,,,
魔法のリボン,,,
【超強敵】暴食ゴーレム挑戦券,,,
インタビューマイク,,,
撮影機材,,,
【乱戦】全力ファンサ挑戦券,,,
